{"hash":"a4fb071f1d40ad1f3679ea44d57c336aef02485c","data":{"author":{"name":"tvN","path":"/author/tv-n/","bio":"A South Korean nationwide pay television network owned by the E&M Division of CJ E&M.","image":{"type":"image","mimeType":"image/png","src":"/6110110113_Ass3_Gridsome/assets/static/tvN.77287e6.5fdb79529105ae14979db2b05d9a03a1.png","size":{"width":820,"height":365},"sizes":"(max-width: 820px) 100vw, 820px","srcset":["/6110110113_Ass3_Gridsome/assets/static/tvN.1b91758.5fdb79529105ae14979db2b05d9a03a1.png 480w","/6110110113_Ass3_Gridsome/assets/static/tvN.77287e6.5fdb79529105ae14979db2b05d9a03a1.png 820w"],"dataUri":"data:image/svg+xml,%3csvg fill='none' viewBox='0 0 820 365' xmlns='http://www.w3.org/2000/svg' xmlns:xlink='http://www.w3.org/1999/xlink'%3e%3cdefs%3e%3cfilter id='__svg-blur-9d31fd5f0fe6e9e13f56826548684048'%3e%3cfeGaussianBlur in='SourceGraphic' stdDeviation='40'/%3e%3c/filter%3e%3c/defs%3e%3cimage x='0' y='0' filter='url(%23__svg-blur-9d31fd5f0fe6e9e13f56826548684048)' width='820' height='365' xlink:href='data:image/png%3bbase64%2c/9j/2wBDAAYEBQYFBAYGBQYHBwYIChAKCgkJChQODwwQFxQYGBcUFhYaHSUfGhsjHBYWICwgIyYnKSopGR8tMC0oMCUoKSj/2wBDAQcHBwoIChMKChMoGhYaKCgoKCgoKCgoKCgoKCgoKCgoKCgoKCgoKCgoKCgoKCgoKCgoKCgoKCgoKCgoKCgoKCj/wAARCAAcAEADASIAAhEBAxEB/8QAGwAAAwACAwAAAAAAAAAAAAAABgcIAAQCAwX/xAA2EAACAQMCBAIGCAcAAAAAAAABAgMEBREABgcSITFRYQgTIkFxgRQVI2KRobLRMjNCc4KSwf/EABkBAAMBAQEAAAAAAAAAAAAAAAMEBQYAAf/EAC4RAAEDAgQBCwUAAAAAAAAAAAECAwQAEQUSITEGExQjMkFRcZGhsdFhgcHC8P/aAAwDAQACEQMRAD8Ap3OhW97zoqLclu2/RFaq7Vcyo8an2YE7sznx5QSF/HGl7xArOI9nF2un1lFS2VJSIkR4iyozcqgeznPUeeltw8t25bruCWr2xKouVOhlaeV16c3sk5YHJOTqc9NUFhtKTf8AH0raYbww05HXLfeQUgaWOgVbTMbaWJFwL/Na5Gs1NVfxA3xtvcoob5cmdqWVDPD6uMq69CQCF7EHuNPPd%2b6KWwbSnvQZZFaMGmXP813HsD/p8gdHalocCjtl3vUidw/JhqaTcL5XqlJJB27wO%2biLOkZvXjBebPuq5262U1tkpKWUxI8sbsxIAByQwHfPu1w4Wbr3duK9T1Nyu8ps1ujaoqsRRgNgEhMhffgn4A6TlXJPcrhVVPIzyys878ozjJLE6RlTSptJauL1qsB4YbZlutzsq8oG17AnxA1sPI1XWzNwx7h2lRXh%2bRDJETOq9kdchwM%2b7p08iNKra/FvcN%2b3ZQWuKktiwVNSI%2bYRPzCPPU/x9%2bUeGhnh5u76q2Ju21yycrNTmWmyf6nxGwH%2byn5HXb6Plu%2bl76aqK5WipnkB8GbCD9R13OlulpKTvvXgwGPAbnPPoBCepfs0uPcD7Ud%2bkbcfo%2b1aCgU4aqqedh4qi/uw1r%2bjbbvVWO7XFlw086wqT4IuT%2bbflrW49USV98tcczyBIqZioUjuXOfd5DR3wkoYaDYNtjg5sMZJGLdyS5/YaKkZ5pJ7B/e9IvrEbhpDad3Fa%2bZP6ilr6SFk9VX229xL7MyGmmP3l6qfmCR/jpcXfclxv9nsVlcM0VAhhiRSSZGLYBx4gYUfDz1SXFm3QXLYdxjqQcR8kqFe6sGHX8CR89Kng9tqgbe0E0oklamieeMORgOMAHt7s5%2bOl5TJ5xlSbBVqs4BiTYwjl3k5lMZreWnobUXXO0psHgncKXoK6oiCzuO7SykKRn7q5A%2bHnoC4BWWK7bluL1aB6aKieNx/c9j9PNpmcdYRVbXoqdndI3qwW5COuEbGtTgHbKegtd3kh5y8k6KxYg9ApIHbzOjKbBlIQNkiprExaMCkSlHpHVanxIHzap/3Da5bJfK621GfWUszRE%2bIB6H5jB07/Rst3qrNd7iy9Z51gU%2bSDJ/NhryeN1ho5t4R1X2iSz0yNJyEAMQSoPbwA/DTJ4RUUVBsK3xQc2GaR2LdyS5/YaFEYySiO69P8Q4qZOBNrtq5lv7n1Ff/2Q==' /%3e%3c/svg%3e"},"facebook":"https://www.facebook.com/cjtvngo","twitter":"https://www.twitter.com","linkedin":"http://tvn.tving.com/tvn","belongsTo":{"totalCount":8,"pageInfo":{"totalPages":2,"currentPage":2},"edges":[{"node":{"title":"Goblin","excerpt":"A romantic fantasy drama, the series follows the story of a 939-year-old Goblin, also known as the Protector of Souls, as he ends up falling for the girl destined to end his cursed immortal life.","image":{"type":"image","mimeType":"image/jpeg","src":"/6110110113_Ass3_Gridsome/assets/static/goblin.a151fe0.de38ff35c4626a0db43a523df8c50733.jpg","size":{"width":680,"height":390},"sizes":"(max-width: 680px) 100vw, 680px","srcset":["/6110110113_Ass3_Gridsome/assets/static/goblin.a151fe0.de38ff35c4626a0db43a523df8c50733.jpg 680w"],"dataUri":"data:image/svg+xml,%3csvg fill='none' viewBox='0 0 680 390' xmlns='http://www.w3.org/2000/svg' xmlns:xlink='http://www.w3.org/1999/xlink'%3e%3cdefs%3e%3cfilter id='__svg-blur-4368cda689bf34bd4eac80496dfe0fd0'%3e%3cfeGaussianBlur in='SourceGraphic' stdDeviation='40'/%3e%3c/filter%3e%3c/defs%3e%3cimage x='0' y='0' filter='url(%23__svg-blur-4368cda689bf34bd4eac80496dfe0fd0)' width='680' height='390' xlink:href='data:image/jpeg%3bbase64%2c/9j/2wBDAAYEBQYFBAYGBQYHBwYIChAKCgkJChQODwwQFxQYGBcUFhYaHSUfGhsjHBYWICwgIyYnKSopGR8tMC0oMCUoKSj/2wBDAQcHBwoIChMKChMoGhYaKCgoKCgoKCgoKCgoKCgoKCgoKCgoKCgoKCgoKCgoKCgoKCgoKCgoKCgoKCgoKCgoKCj/wAARCAAlAEADASIAAhEBAxEB/8QAGwAAAgMBAQEAAAAAAAAAAAAABQYABAcIAgP/xAAuEAABAwMDAgUEAQUAAAAAAAABAgMEAAURBhIhMUETIlFxgQcUMmGxFUNzkZL/xAAYAQEAAwEAAAAAAAAAAAAAAAADAAECBP/EAB4RAAICAgMBAQAAAAAAAAAAAAABAhEDIRIiMVFx/9oADAMBAAIRAxEAPwDQQpZVwTnvmvTm/djk%2bXNWFNAEH9j%2baTNa2lF8vEmE/MXDXEhJkxVpcIAUVK3KKRwr8Ujnpn90TdKzUI83SGhACGXXHVbUoBUonsByaUbdqBWoHg5Ft0liCUrUzKdWnD204PlHI%2bfSilu1Cy39MmbvdnN4QyW3TjBdUFFGMeqsD/dUtA32Fe7VEbigoXFR4UiOUjc04Tg5IGFAgZBHqajutFpRV8vS82qdJMxq2PoYSz5XH1o3gLxnaE5AJAIJJPGaLM3B2NGhMTltOTVMlx9TfCEhCQVrx6dMe4pTulskXO0qhuw/BUzcFrecdR%2bafFKvJ6gjaVH0BHtVkWK4Ph5W9SHVsIVgSQrzknxBnPOSEE9sZrRg0KwzDNgMylLSfHTvwjogE8DPcjufWry1AqJBPTpSRYrZJjXOK/IyEpCk4So4BCcDj9la/wDkU0JlMrlKjB9oyEp3KaCwVgepT1xUIZZ9Rb1rmJqOUbCh9m1xEIKcRwsO8BRJ4JPJxj0FDp%2bobnd71HvLqUQ5MdrwWm04y103nnvnPtUlaq1MNSXG1R5aSi4NIkF1YwWCBg7AOMcdD35oHfZ0TSs1u1zA9MdS34hfaIBO73%2baqcZPrR0Y3BbC9%2bkJOg2IaniYn9Rbe56AFKlEe24ZxSj9MtSuae1My8vcuDLWlqQ37q8qh%2bwT/NEddXRqXpu3TI0lpaJEpLnhNjlG1CgQRjgjPSkpbjbDjAYUXFNqB3D8VYVlOO4PQfFLiXSmFkpytHQ31F1NEtd2XHU3OlLjHL4jtjYxuGAVLPAJ7Cr1jct95tTdwiTDsWCnBQEqSehCh6jFUNNamsmp3pZk2yWXp0cffRnEK8%2b3CU/jwrk47furek0W6BBl2yGtEBUaYpqQ0sgBpxZzjceox8DGO1C5eqjTh0Ukz66jnp05p6WtExf3cnCYaSBuU4rCRsHfk5pS1e9brNctLQLChC7u1NS44vG6QtCiQre4PyChng9MGt2u9otGoIaLbdIzUqPGcSpsK42rQeCCORyKXtb6Mt029xNUGQqPOtreElsDDuTgBWe2CR81dbTMxmkmvphD6ivXDAP9yB5iP8lA/qnCCrtant5CpCHArjoEkEfzUqV0hL0C26B9/pQrU6UeA%2btwDGQeAMVTtTYflDd0Zw5j15AqVKOMnb/RWlSNA07dn4TyZkfyOSDHaWAojyfcNEjj2oFqKc47dJTqshyQ644sg9SVE/NSpSBHRmkr4DY4DciN4rqmEbnvEIUokcnp6mi2oH1x7LCQFKX9y4paio5IA4AqVK5Itt7GyRUao//Z' /%3e%3c/svg%3e"},"path":"/blog/goblin/","timeToRead":4,"category":{"id":"Fantasy, Romance, Drama","title":"Fantasy, Romance, Drama"},"author":[{"id":"author3","name":"tvN","image":{"type":"image","mimeType":"image/png","src":"/6110110113_Ass3_Gridsome/assets/static/tvN.3db9db9.5fdb79529105ae14979db2b05d9a03a1.png","size":{"width":24,"height":11},"sizes":"(max-width: 24px) 100vw, 24px","srcset":["/6110110113_Ass3_Gridsome/assets/static/tvN.3db9db9.5fdb79529105ae14979db2b05d9a03a1.png 24w"],"dataUri":"data:image/svg+xml,%3csvg fill='none' viewBox='0 0 24 11' xmlns='http://www.w3.org/2000/svg' xmlns:xlink='http://www.w3.org/1999/xlink'%3e%3cdefs%3e%3cfilter id='__svg-blur-9d31fd5f0fe6e9e13f56826548684048'%3e%3cfeGaussianBlur in='SourceGraphic' stdDeviation='40'/%3e%3c/filter%3e%3c/defs%3e%3cimage x='0' y='0' filter='url(%23__svg-blur-9d31fd5f0fe6e9e13f56826548684048)' width='24' height='11' xlink:href='data:image/png%3bbase64%2c/9j/2wBDAAYEBQYFBAYGBQYHBwYIChAKCgkJChQODwwQFxQYGBcUFhYaHSUfGhsjHBYWICwgIyYnKSopGR8tMC0oMCUoKSj/2wBDAQcHBwoIChMKChMoGhYaKCgoKCgoKCgoKCgoKCgoKCgoKCgoKCgoKCgoKCgoKCgoKCgoKCgoKCgoKCgoKCgoKCj/wAARCAAcAEADASIAAhEBAxEB/8QAGwAAAwACAwAAAAAAAAAAAAAABgcIAAQCAwX/xAA2EAACAQMCBAIGCAcAAAAAAAABAgMEBREABgcSITFRYQgTIkFxgRQVI2KRobLRMjNCc4KSwf/EABkBAAMBAQEAAAAAAAAAAAAAAAMEBQYAAf/EAC4RAAEDAgQBCwUAAAAAAAAAAAECAwQAEQUSITEGExQjMkFRcZGhsdFhgcHC8P/aAAwDAQACEQMRAD8Ap3OhW97zoqLclu2/RFaq7Vcyo8an2YE7sznx5QSF/HGl7xArOI9nF2un1lFS2VJSIkR4iyozcqgeznPUeeltw8t25bruCWr2xKouVOhlaeV16c3sk5YHJOTqc9NUFhtKTf8AH0raYbww05HXLfeQUgaWOgVbTMbaWJFwL/Na5Gs1NVfxA3xtvcoob5cmdqWVDPD6uMq69CQCF7EHuNPPd%2b6KWwbSnvQZZFaMGmXP813HsD/p8gdHalocCjtl3vUidw/JhqaTcL5XqlJJB27wO%2biLOkZvXjBebPuq5262U1tkpKWUxI8sbsxIAByQwHfPu1w4Wbr3duK9T1Nyu8ps1ujaoqsRRgNgEhMhffgn4A6TlXJPcrhVVPIzyys878ozjJLE6RlTSptJauL1qsB4YbZlutzsq8oG17AnxA1sPI1XWzNwx7h2lRXh%2bRDJETOq9kdchwM%2b7p08iNKra/FvcN%2b3ZQWuKktiwVNSI%2bYRPzCPPU/x9%2bUeGhnh5u76q2Ju21yycrNTmWmyf6nxGwH%2byn5HXb6Plu%2bl76aqK5WipnkB8GbCD9R13OlulpKTvvXgwGPAbnPPoBCepfs0uPcD7Ud%2bkbcfo%2b1aCgU4aqqedh4qi/uw1r%2bjbbvVWO7XFlw086wqT4IuT%2bbflrW49USV98tcczyBIqZioUjuXOfd5DR3wkoYaDYNtjg5sMZJGLdyS5/YaKkZ5pJ7B/e9IvrEbhpDad3Fa%2bZP6ilr6SFk9VX229xL7MyGmmP3l6qfmCR/jpcXfclxv9nsVlcM0VAhhiRSSZGLYBx4gYUfDz1SXFm3QXLYdxjqQcR8kqFe6sGHX8CR89Kng9tqgbe0E0oklamieeMORgOMAHt7s5%2bOl5TJ5xlSbBVqs4BiTYwjl3k5lMZreWnobUXXO0psHgncKXoK6oiCzuO7SykKRn7q5A%2bHnoC4BWWK7bluL1aB6aKieNx/c9j9PNpmcdYRVbXoqdndI3qwW5COuEbGtTgHbKegtd3kh5y8k6KxYg9ApIHbzOjKbBlIQNkiprExaMCkSlHpHVanxIHzap/3Da5bJfK621GfWUszRE%2bIB6H5jB07/Rst3qrNd7iy9Z51gU%2bSDJ/NhryeN1ho5t4R1X2iSz0yNJyEAMQSoPbwA/DTJ4RUUVBsK3xQc2GaR2LdyS5/YaFEYySiO69P8Q4qZOBNrtq5lv7n1Ff/2Q==' /%3e%3c/svg%3e"},"path":"/author/tv-n/"}]}},{"node":{"title":"Crash Landing on You","excerpt":"The lives of a South Korean heiress and a North Korean military officer collide when the former lands into North Korean territory after a paragliding accident.","image":{"type":"image","mimeType":"image/jpeg","src":"/6110110113_Ass3_Gridsome/assets/static/crashlanding.4250cd3.c760eb46904762aaff88a88fadfb987b.jpg","size":{"width":800,"height":450},"sizes":"(max-width: 800px) 100vw, 800px","srcset":["/6110110113_Ass3_Gridsome/assets/static/crashlanding.1b91758.c760eb46904762aaff88a88fadfb987b.jpg 480w","/6110110113_Ass3_Gridsome/assets/static/crashlanding.4250cd3.c760eb46904762aaff88a88fadfb987b.jpg 800w"],"dataUri":"data:image/svg+xml,%3csvg fill='none' viewBox='0 0 800 450' xmlns='http://www.w3.org/2000/svg' xmlns:xlink='http://www.w3.org/1999/xlink'%3e%3cdefs%3e%3cfilter id='__svg-blur-03c108ecdb520bc73e9d78baf2532560'%3e%3cfeGaussianBlur in='SourceGraphic' stdDeviation='40'/%3e%3c/filter%3e%3c/defs%3e%3cimage x='0' y='0' filter='url(%23__svg-blur-03c108ecdb520bc73e9d78baf2532560)' width='800' height='450' xlink:href='data:image/jpeg%3bbase64%2c/9j/2wBDAAYEBQYFBAYGBQYHBwYIChAKCgkJChQODwwQFxQYGBcUFhYaHSUfGhsjHBYWICwgIyYnKSopGR8tMC0oMCUoKSj/2wBDAQcHBwoIChMKChMoGhYaKCgoKCgoKCgoKCgoKCgoKCgoKCgoKCgoKCgoKCgoKCgoKCgoKCgoKCgoKCgoKCgoKCj/wAARCAAkAEADASIAAhEBAxEB/8QAGwAAAQUBAQAAAAAAAAAAAAAABgACAwQFAQf/xAAzEAACAQMDAgQCCAcAAAAAAAABAgMEBREAEiEGMRNBUWFCgQcUFSIjMpHBQ3GCobLR8P/EABsBAAICAwEAAAAAAAAAAAAAAAEEBQYCAwcA/8QAKREAAgIBAgMHBQAAAAAAAAAAAQIAAxEEITFBYRIyUYGRscETIjM0Yv/aAAwDAQACEQMRAD8A5SWyWVBLGm9G/Y6dAkFQZEglhmaM4dYm5X/vXtqex3inouh7iZKiNainikZBu5O4cY/qOq1EJo%2bq%2bkzJQzxU1RbTCrucgL4IYDI8sqTnjvjUhq9UyWioiHT6VGr%2boGk7QCkjkkaOWWOMFtgAYnjsPfTbbcZpbpU2642uOlkjjEoMc6zxupOMHaBhgdWOour7XapZ6WlWWquCAgBI/wANWxxuY9/lnQ7031fSXLqKv%2b1fBorlUlFhDsdj8DcqnsDuA4OkrcuwHLnvHKiqKTz5bQxjmgQ4jpo0Y/Eq6ZLVbO8%2b0n1jX/Wszq%2bpnt1qSPxBTS1kyUqSsdoQMcM2ecYHn5Z1n9P00dP1DeLRC0s9LAEnh8SVpGhySrIS3JyRu0jbRWHxnJ9feOV3OUzjA6ZHtLd06oo7ZOsNZWbSdpdlhLLEG4UuRwuSNWpKiXxAWfep5DIe49tZfUlPbltV82xQTSeHHPVKGywRVKjI8sHGPfUNu6rtL0tMkFJL4CoIg%2b4MyADHI%2bWilJYkKvDoIS6jBY8ep%2bTA3r6err7lLHVPTN9RiEbS0yhEBYkj9xn217F1X1HHa/o9sFzoZqeCvNNCYoyWMUocbTEwHcELgZ7Htzrx9UWgroqyd4HSVpmaGRSw3BDtJ77jvbgYPnrS6kutLXdKUiy3KleqEVO8kcC8x/maUhMYG0j5Z99NNucxIL9vhB%2bprCiB3l3/AFhisco7FgxL548iwxoavFRJJIsjnLJLjdjz76M6OK4G3tXJEDQlJ40qIZwzBmQFh25BXcD3PProWdaCSmjgqqwyB5hIrIhTAEZDAk9iTjHlwfXXu1kYhZcAQvvC1F3u0FTc5Zam3qFLIG2ZzycY7Z4Ge%2brfUtdQT3Zq60JNTl4Fjdi/3jgc5IPI7d9MsN%2brLKYIKYqUqadVcyoCBsC4OPXk%2bf66kuvU1VPRVKTLEY2UxBPDAAyPzDAHP66iHvd7e2Djf5lzr0NVNJUVggDBJP8AIJ2x6Sha5jSfRl1DIWbxbjX0tK2Ry6jdJwfTjQ9Yjsue1ELI4K4J8t3GTrk99We2w2seMaeGpFQoK5/hBAP8jj31J0vElRcSZWkCiGR1KNtIb4flny1PVthgx8ZRjw2lyWZ5pR4hzt7fPWFOu6WVMlQ0jxttOMqSMg%2b3A0tLWDTPlCfqenfp9prZbquqWlppInQM/wARjU5OAATz6eQ0K0FPFVXW1Us6B4JJgjqfiB76WlrUdlmwbsAekM69Ql0hjQYRHnRR6AMAP7DUF1%2b5HGR5tgj%2bfH76WlqCXvidJt/Ws8vYQPp2P2hUEcEEgfIaPbnYqO1UNtq6MyrJUxJvDPkcorEj05OlpaslX5B5zl79wz//2Q==' /%3e%3c/svg%3e"},"path":"/blog/crash-landing-on-you/","timeToRead":3,"category":{"id":"Recommend","title":"Recommend"},"author":[{"id":"author3","name":"tvN","image":{"type":"image","mimeType":"image/png","src":"/6110110113_Ass3_Gridsome/assets/static/tvN.3db9db9.5fdb79529105ae14979db2b05d9a03a1.png","size":{"width":24,"height":11},"sizes":"(max-width: 24px) 100vw, 24px","srcset":["/6110110113_Ass3_Gridsome/assets/static/tvN.3db9db9.5fdb79529105ae14979db2b05d9a03a1.png 24w"],"dataUri":"data:image/svg+xml,%3csvg fill='none' viewBox='0 0 24 11' xmlns='http://www.w3.org/2000/svg' xmlns:xlink='http://www.w3.org/1999/xlink'%3e%3cdefs%3e%3cfilter id='__svg-blur-9d31fd5f0fe6e9e13f56826548684048'%3e%3cfeGaussianBlur in='SourceGraphic' stdDeviation='40'/%3e%3c/filter%3e%3c/defs%3e%3cimage x='0' y='0' filter='url(%23__svg-blur-9d31fd5f0fe6e9e13f56826548684048)' width='24' height='11' xlink:href='data:image/png%3bbase64%2c/9j/2wBDAAYEBQYFBAYGBQYHBwYIChAKCgkJChQODwwQFxQYGBcUFhYaHSUfGhsjHBYWICwgIyYnKSopGR8tMC0oMCUoKSj/2wBDAQcHBwoIChMKChMoGhYaKCgoKCgoKCgoKCgoKCgoKCgoKCgoKCgoKCgoKCgoKCgoKCgoKCgoKCgoKCgoKCgoKCj/wAARCAAcAEADASIAAhEBAxEB/8QAGwAAAwACAwAAAAAAAAAAAAAABgcIAAQCAwX/xAA2EAACAQMCBAIGCAcAAAAAAAABAgMEBREABgcSITFRYQgTIkFxgRQVI2KRobLRMjNCc4KSwf/EABkBAAMBAQEAAAAAAAAAAAAAAAMEBQYAAf/EAC4RAAEDAgQBCwUAAAAAAAAAAAECAwQAEQUSITEGExQjMkFRcZGhsdFhgcHC8P/aAAwDAQACEQMRAD8Ap3OhW97zoqLclu2/RFaq7Vcyo8an2YE7sznx5QSF/HGl7xArOI9nF2un1lFS2VJSIkR4iyozcqgeznPUeeltw8t25bruCWr2xKouVOhlaeV16c3sk5YHJOTqc9NUFhtKTf8AH0raYbww05HXLfeQUgaWOgVbTMbaWJFwL/Na5Gs1NVfxA3xtvcoob5cmdqWVDPD6uMq69CQCF7EHuNPPd%2b6KWwbSnvQZZFaMGmXP813HsD/p8gdHalocCjtl3vUidw/JhqaTcL5XqlJJB27wO%2biLOkZvXjBebPuq5262U1tkpKWUxI8sbsxIAByQwHfPu1w4Wbr3duK9T1Nyu8ps1ujaoqsRRgNgEhMhffgn4A6TlXJPcrhVVPIzyys878ozjJLE6RlTSptJauL1qsB4YbZlutzsq8oG17AnxA1sPI1XWzNwx7h2lRXh%2bRDJETOq9kdchwM%2b7p08iNKra/FvcN%2b3ZQWuKktiwVNSI%2bYRPzCPPU/x9%2bUeGhnh5u76q2Ju21yycrNTmWmyf6nxGwH%2byn5HXb6Plu%2bl76aqK5WipnkB8GbCD9R13OlulpKTvvXgwGPAbnPPoBCepfs0uPcD7Ud%2bkbcfo%2b1aCgU4aqqedh4qi/uw1r%2bjbbvVWO7XFlw086wqT4IuT%2bbflrW49USV98tcczyBIqZioUjuXOfd5DR3wkoYaDYNtjg5sMZJGLdyS5/YaKkZ5pJ7B/e9IvrEbhpDad3Fa%2bZP6ilr6SFk9VX229xL7MyGmmP3l6qfmCR/jpcXfclxv9nsVlcM0VAhhiRSSZGLYBx4gYUfDz1SXFm3QXLYdxjqQcR8kqFe6sGHX8CR89Kng9tqgbe0E0oklamieeMORgOMAHt7s5%2bOl5TJ5xlSbBVqs4BiTYwjl3k5lMZreWnobUXXO0psHgncKXoK6oiCzuO7SykKRn7q5A%2bHnoC4BWWK7bluL1aB6aKieNx/c9j9PNpmcdYRVbXoqdndI3qwW5COuEbGtTgHbKegtd3kh5y8k6KxYg9ApIHbzOjKbBlIQNkiprExaMCkSlHpHVanxIHzap/3Da5bJfK621GfWUszRE%2bIB6H5jB07/Rst3qrNd7iy9Z51gU%2bSDJ/NhryeN1ho5t4R1X2iSz0yNJyEAMQSoPbwA/DTJ4RUUVBsK3xQc2GaR2LdyS5/YaFEYySiO69P8Q4qZOBNrtq5lv7n1Ff/2Q==' /%3e%3c/svg%3e"},"path":"/author/tv-n/"}]}},{"node":{"title":"Reply 1988","excerpt":"Five childhood friends who live in the same neighborhood of Ssangmundong rely on each other as they enter the peak of their turbulent teen years.","image":{"type":"image","mimeType":"image/jpeg","src":"/6110110113_Ass3_Gridsome/assets/static/reply1988.6e077b8.84d5e9f0db4c5f33646cb857b80fbdd7.jpg","size":{"width":240,"height":239},"sizes":"(max-width: 240px) 100vw, 240px","srcset":["/6110110113_Ass3_Gridsome/assets/static/reply1988.6e077b8.84d5e9f0db4c5f33646cb857b80fbdd7.jpg 240w"],"dataUri":"data:image/svg+xml,%3csvg fill='none' viewBox='0 0 240 239' xmlns='http://www.w3.org/2000/svg' xmlns:xlink='http://www.w3.org/1999/xlink'%3e%3cdefs%3e%3cfilter id='__svg-blur-3607c97087ccd50094598ac5b9394478'%3e%3cfeGaussianBlur in='SourceGraphic' stdDeviation='40'/%3e%3c/filter%3e%3c/defs%3e%3cimage x='0' y='0' filter='url(%23__svg-blur-3607c97087ccd50094598ac5b9394478)' width='240' height='239' xlink:href='data:image/jpeg%3bbase64%2c/9j/2wBDAAYEBQYFBAYGBQYHBwYIChAKCgkJChQODwwQFxQYGBcUFhYaHSUfGhsjHBYWICwgIyYnKSopGR8tMC0oMCUoKSj/2wBDAQcHBwoIChMKChMoGhYaKCgoKCgoKCgoKCgoKCgoKCgoKCgoKCgoKCgoKCgoKCgoKCgoKCgoKCgoKCgoKCgoKCj/wAARCABAAEADASIAAhEBAxEB/8QAHAAAAgMAAwEAAAAAAAAAAAAABQYDBAcAAggB/8QANBAAAgIBAwMCBQMCBQUAAAAAAQIDBBEABSEGEjETQQciMlFxFGGBFUIjM1KRoWJygrHB/8QAGQEAAwEBAQAAAAAAAAAAAAAAAQIDBAUA/8QAKBEAAgIBBAEDAwUAAAAAAAAAAQIAAxESITFBBBNCkSIjcTJRYaHB/9oADAMBAAIRAxEAPwA90dRM25W4b0YZInMjiSNlI8YXOcg8jPt9vOtbrwRCFexAFI%2bkDgawbYpbjxssM5NqR/TLqqsUQkAe%2bWOM4/cY0%2bt1FYq7VaeqGliimiijayxLdrEKx55988/jXJqsCtkibmrLrtHHdhHHFEQp%2bWVR2jQqJkTZaLjMcixqSjfMce48%2bf30ob/1nHSvTLNF60NcrISpyzDHgKB9WT/60u2PiL%2bnjjqT7LZhsRpmSq0JZ44xz38Y%2bXB/PGqm3llXMmtRP054mm3dxjgh7kjklfjAUDBP5zpd6s3KEbNBFI3pSWG9IrFMGZGYZ5%2b%2bCPbQWLrG3JdSpXholXdY45fRl9J3Ze8J392O4rg4/fQvqmPdf6vFHYr0UoVZVRZEkxK2ee4j3GeNNRbrcBl0iB6WRCecSPpqhNBuluxUEk%2ba7x4CeM8A/wDGiqbXHD2pYu164ByPUcd2OeMD86r1KSWaV3vsTVoWQqkkZwTJn5QfYjyce/tqOlRlghhaSrGJFVRMyrgdw%2br/AJzo3kIxCylAZ0DN3Jq067R8ILUxgE1i1cMZ7/qRi2QSf%2bkKR/OudE7xvtq5VF3bqljabMrQNKXzMAAcSMCeRkEeM679GvQ6m6am2K1LKga0JX7fr7VY92D7EkD%2bCdN1Hp/a9qldqMPpqI/S9LuOFweW/J450BlgMT2VAIaK/Wuw26NzbrfTG3wzzAn1BNIFUkHIzkjJIyP/AB0a3mOPaumKW73%2b%2bDcbEKwutcCRw0hXESk/USSBk8cDjzrLfiF8Qt1q9VXNviSA7fTmMYikQlZSB5YjByM%2bAR/OmH4Tb/c%2bIT2dl3m0PVohblKxGoUqwbtwQOGADYAOkspYgmPVYqEf3JKl2LbukrF22zs1a1JJHGUEfpTKSuWCnBYc/KOPHnSJe6isnYUgkSzHYeQyPPLF2Bl4KhDjwCPb760Lr7phaFmzttG1YiihptellaMyCzaZyezI4XgDgfcfbXXrXpuvf2z9PuspN79OGrzs7ExErkrwcNz54OfvqlQCsAo/MfyCjKGB6%2bf3gTq%2b3c6f6ikho2JIokpRSMUIIRGVVJI9vm98ZyRonsM0m1fDwXYVE80rSzCNiT8oKpg%2b/GMn86Db7vNyq77dcgq7jZWrDVnmEYD8Lzg4PcefHscaZ36iggpUTDEsNZ0xUjUEIsYH9x8k5z8v3xk6rbnTuNjx/PczoOMHiUOl6idMdQ7Z32E/TXrM9JjjtKNIgdCc/YqP99M/VV6Td4LO1pfXbZlnSOaRSUl7Q2GAyMc%2bxGeNDOt94Gw09qtCpE86NL2F1HyN6fbn84bWR197t2bptGxILPccSE9xHkY5yMe2NS8etrKtWd95tp8UXOc7ATnXXTO7x79NNtUE1iiAhW1LKoLyAc9xfGWHg8ftpm6CrdQbH/UOqbI28X1dVs155FQiLKnGFwFJGCMeeNU%2bnr0m4brFttl554bMnzgTellvPcCB7AeB5xq7fKsd6qUqUzrYu%2btGwVncGNiMfvntGP51d6mwEHO2f9k76PQsOTkHiNKdTWt9L3I%2b1ZDn16iSBHgIPBAPlWU5B/bUG4ps926BvFv9QINvMSqjlvRPcT3dy/34IA/7caW%2bs2q7VuK3Iv1UO42EhmQhSYuwx4dGOPqBBOCR7abfh7ttKXpLb9wjpxCSzCsczklmlfuYEsPHnGMff8aVkLqdJwOopvatVrsXiZxdrX6xhsr%2bpvxzfNDbEZbv4x3Effj/AOnTDBNJJ0TDUt1b8N6pIXVZoiqmPB%2bZTjkYI/k6j3mxXrb/AL7R2WFRV26oBWVnLKsyHLt5znkqeedXOh9w3jfNtvT2kV46/wDlRVwf8VwucZJ%2b5A485Oq%2bS3rIqN7ePiZqzpbI7hz4iV492u1am7QyV6aofQkRsL3NjIIPvgDGfIzrP26SkjFmZLNeLskWNQpI9VT/AHggYX98869H2dhr2%2b8SSYV0MTqSrgg%2bRhs4PHnzqps/StTaUmjhtPPHKQcWVjl7SPBUkca59FzVrpEoGvpsZqm2bo9fiYMNpqbIse57ZZtTXKuXYRKCi/diT7Y7hjnz7a%2bz9T77foQ9251a%2b3yTiubcIMciMwJ%2bkEjOP7gOM%2bNbyvSG1S27FudYzZsKEldMRhlAwOBwOP8AfVO70XtU1OvXt1qQgqgxww1kCLyxPcw/1nPJH21db8j7i5ig2%2b58n4mEXtu3CXpxt0nSy1UyKsKliXGDj1TnyMAjB/Y6PfDPdLce2XaME8MkqyK1OiB2OH4PeC3AX7jW1DaImrwJ/UJGFZVSE%2bouUCnIBPv49/tqLcdsjtxypNaCFh87wpFG5zzywXOgfJJznuNoBxq4nmODcJ9t3O3YngWWew0iSR5%2bZ%2b4kEce/J%2b/ka13ZNkjq9F19nFqzA/ph3ssSXd893aQoyp8DIJ8c6Lbf0DtW1%2bou3zMHkxlyyGQgHOA2Mgcc6MHbo4kCuVwv3IBH51O/ydf6Y1deNzP/2Q==' /%3e%3c/svg%3e"},"path":"/blog/reply-1988/","timeToRead":6,"category":{"id":"Family, Comedy, Romance","title":"Family, Comedy, Romance"},"author":[{"id":"author3","name":"tvN","image":{"type":"image","mimeType":"image/png","src":"/6110110113_Ass3_Gridsome/assets/static/tvN.3db9db9.5fdb79529105ae14979db2b05d9a03a1.png","size":{"width":24,"height":11},"sizes":"(max-width: 24px) 100vw, 24px","srcset":["/6110110113_Ass3_Gridsome/assets/static/tvN.3db9db9.5fdb79529105ae14979db2b05d9a03a1.png 24w"],"dataUri":"data:image/svg+xml,%3csvg fill='none' viewBox='0 0 24 11' xmlns='http://www.w3.org/2000/svg' xmlns:xlink='http://www.w3.org/1999/xlink'%3e%3cdefs%3e%3cfilter id='__svg-blur-9d31fd5f0fe6e9e13f56826548684048'%3e%3cfeGaussianBlur in='SourceGraphic' stdDeviation='40'/%3e%3c/filter%3e%3c/defs%3e%3cimage x='0' y='0' filter='url(%23__svg-blur-9d31fd5f0fe6e9e13f56826548684048)' width='24' height='11' xlink:href='data:image/png%3bbase64%2c/9j/2wBDAAYEBQYFBAYGBQYHBwYIChAKCgkJChQODwwQFxQYGBcUFhYaHSUfGhsjHBYWICwgIyYnKSopGR8tMC0oMCUoKSj/2wBDAQcHBwoIChMKChMoGhYaKCgoKCgoKCgoKCgoKCgoKCgoKCgoKCgoKCgoKCgoKCgoKCgoKCgoKCgoKCgoKCgoKCj/wAARCAAcAEADASIAAhEBAxEB/8QAGwAAAwACAwAAAAAAAAAAAAAABgcIAAQCAwX/xAA2EAACAQMCBAIGCAcAAAAAAAABAgMEBREABgcSITFRYQgTIkFxgRQVI2KRobLRMjNCc4KSwf/EABkBAAMBAQEAAAAAAAAAAAAAAAMEBQYAAf/EAC4RAAEDAgQBCwUAAAAAAAAAAAECAwQAEQUSITEGExQjMkFRcZGhsdFhgcHC8P/aAAwDAQACEQMRAD8Ap3OhW97zoqLclu2/RFaq7Vcyo8an2YE7sznx5QSF/HGl7xArOI9nF2un1lFS2VJSIkR4iyozcqgeznPUeeltw8t25bruCWr2xKouVOhlaeV16c3sk5YHJOTqc9NUFhtKTf8AH0raYbww05HXLfeQUgaWOgVbTMbaWJFwL/Na5Gs1NVfxA3xtvcoob5cmdqWVDPD6uMq69CQCF7EHuNPPd%2b6KWwbSnvQZZFaMGmXP813HsD/p8gdHalocCjtl3vUidw/JhqaTcL5XqlJJB27wO%2biLOkZvXjBebPuq5262U1tkpKWUxI8sbsxIAByQwHfPu1w4Wbr3duK9T1Nyu8ps1ujaoqsRRgNgEhMhffgn4A6TlXJPcrhVVPIzyys878ozjJLE6RlTSptJauL1qsB4YbZlutzsq8oG17AnxA1sPI1XWzNwx7h2lRXh%2bRDJETOq9kdchwM%2b7p08iNKra/FvcN%2b3ZQWuKktiwVNSI%2bYRPzCPPU/x9%2bUeGhnh5u76q2Ju21yycrNTmWmyf6nxGwH%2byn5HXb6Plu%2bl76aqK5WipnkB8GbCD9R13OlulpKTvvXgwGPAbnPPoBCepfs0uPcD7Ud%2bkbcfo%2b1aCgU4aqqedh4qi/uw1r%2bjbbvVWO7XFlw086wqT4IuT%2bbflrW49USV98tcczyBIqZioUjuXOfd5DR3wkoYaDYNtjg5sMZJGLdyS5/YaKkZ5pJ7B/e9IvrEbhpDad3Fa%2bZP6ilr6SFk9VX229xL7MyGmmP3l6qfmCR/jpcXfclxv9nsVlcM0VAhhiRSSZGLYBx4gYUfDz1SXFm3QXLYdxjqQcR8kqFe6sGHX8CR89Kng9tqgbe0E0oklamieeMORgOMAHt7s5%2bOl5TJ5xlSbBVqs4BiTYwjl3k5lMZreWnobUXXO0psHgncKXoK6oiCzuO7SykKRn7q5A%2bHnoC4BWWK7bluL1aB6aKieNx/c9j9PNpmcdYRVbXoqdndI3qwW5COuEbGtTgHbKegtd3kh5y8k6KxYg9ApIHbzOjKbBlIQNkiprExaMCkSlHpHVanxIHzap/3Da5bJfK621GfWUszRE%2bIB6H5jB07/Rst3qrNd7iy9Z51gU%2bSDJ/NhryeN1ho5t4R1X2iSz0yNJyEAMQSoPbwA/DTJ4RUUVBsK3xQc2GaR2LdyS5/YaFEYySiO69P8Q4qZOBNrtq5lv7n1Ff/2Q==' /%3e%3c/svg%3e"},"path":"/author/tv-n/"}]}}]}}},"context":{}}