{"hash":"e50ee2dd1e45d3daa7c686a97603104c67823e37","data":{"tag":{"title":"tag2","path":"/tags/tag2/","belongsTo":{"totalCount":7,"pageInfo":{"totalPages":2,"currentPage":2},"edges":[{"node":{"title":"Racket Boys","excerpt":"The series follows the growth of sixteen boys and girls and the challenges faced by badminton club of their school.","image":{"type":"image","mimeType":"image/jpeg","src":"/6110110113_Ass3_Gridsome/assets/static/racketboy.4250cd3.819f2a28be402f39571303da3db7f330.jpg","size":{"width":800,"height":1130},"sizes":"(max-width: 800px) 100vw, 800px","srcset":["/6110110113_Ass3_Gridsome/assets/static/racketboy.1b91758.819f2a28be402f39571303da3db7f330.jpg 480w","/6110110113_Ass3_Gridsome/assets/static/racketboy.4250cd3.819f2a28be402f39571303da3db7f330.jpg 800w"],"dataUri":"data:image/svg+xml,%3csvg fill='none' viewBox='0 0 800 1130' xmlns='http://www.w3.org/2000/svg' xmlns:xlink='http://www.w3.org/1999/xlink'%3e%3cdefs%3e%3cfilter id='__svg-blur-4fc754c4ffacedb11617bce8a92a7c22'%3e%3cfeGaussianBlur in='SourceGraphic' stdDeviation='40'/%3e%3c/filter%3e%3c/defs%3e%3cimage x='0' y='0' filter='url(%23__svg-blur-4fc754c4ffacedb11617bce8a92a7c22)' width='800' height='1130' xlink:href='data:image/jpeg%3bbase64%2c/9j/2wBDAAYEBQYFBAYGBQYHBwYIChAKCgkJChQODwwQFxQYGBcUFhYaHSUfGhsjHBYWICwgIyYnKSopGR8tMC0oMCUoKSj/2wBDAQcHBwoIChMKChMoGhYaKCgoKCgoKCgoKCgoKCgoKCgoKCgoKCgoKCgoKCgoKCgoKCgoKCgoKCgoKCgoKCgoKCj/wAARCABaAEADASIAAhEBAxEB/8QAGwAAAgMBAQEAAAAAAAAAAAAABQYCAwQHAAH/xAA1EAACAQMDAgMGBAUFAAAAAAABAgMEESEABRIGMRMiQRQyUWGBoQcVQnEjUpGxwRZTgtHh/8QAGgEAAgIDAAAAAAAAAAAAAAAAAgQDBQABBv/EAC4RAAEEAQIEBQIHAQAAAAAAAAEAAgMRIQQxEhNx8EFRYZHhgdEiI0JyobHB8f/aAAwDAQACEQMRAD8Abdx3qSsoEpinGzcie%2bgnhMWYnIJuMWtotPBEqApyvfPID7W1KKM2CPyCD012kcbWD8IXEukc425CRD8tX01JOQTFBJJGWzZSRfTn0ltFLWV1QJKdZoo4wxSWMsfeHu2IzonuW37ZRTbc4gdUeSRWplYoGHNgGLA9xgftqB%2brY13LAz8WmGaZ7mcwmh80ucTUkiANJC8ak2yDg/DVDQ5xrpm0U%2b2VG5blC%2b184k80as/JUtg%2bcnFzc6CdX0EMW5RCmpxAhhDcAvG5LNnGO1sjRxaoOfyyMoJdOWs5oOL9UmNEOIte/rfXlMiACNiv7G2iUlM1wAo4nvf4aqansDi2MY00WghKh5Tv/phyoZqiniAOb5NtYZNrljdhGjTgGwZBe4%2bOmSWGGF4ymCfdDOMnWnxaxFADcVtYWtqjbq3jc31wrU6Zh2Htn7ITsW2lKppK2JzCi38E4MzdlUD1zrd%2bUUrLXRzTEwxhDDI6FjCC3mXiOx9LDWuGvqKcuS8ZdreZ7Ej9tVzbpVs4cVahjYGzBcf01E6WRzibrvopmNiY0NIv6fK0tT7W9MzRQ0yxiJBaRWCA8m94L69u%2bgfUdFT2oTT8eXggMqe6Mm1vv9tE03SoSQuKwFiLEsVN/l99UVky1jCSV4AwFrrZb/8AutRF0buInHVZM5kjOEDPT5Sr7Msi8kIZT6jVMlHjtpjZIf8AcjH/ACGq2gVluhDD4g6sG6jyVeYUp7rukW6VfiTM/wDDFkWPAUd/jrLFPATaN6kt8AT/AN6WkNLJIi3VL%2b8zpgW%2bGc6xUtTPTVMiy0M0bTG8SKyOXAH74%2buubaZW1xO7%2bq6M6fTvstZnvytM8m4QzVk8MNPUtJGoJPi8QSR8PTVxDCK4gLn%2bVavP3Gk%2bm3F4t0rmeGojyim6A8MfqIuPX01gi6hrzK58KwANrR8hf0HpbTkIfJs%2bgK3r7pCWCFgtzLJvbr0Tk1VItwaCYkfpFWLm/wBNUncwlbDTVdHUweISFZajmMC/oNKtfvW5wyRFYSHdWKhoStwPqfTWnca8iq2yWpcoFZmfkAtvLnvopA9meOxnb/qFunhP6KON%2bv7fJNMz0qN52qQwBIvfRDp/dlodyhgiklZKlgjJLcgZ7j56Rq6sjq3ifm7xRgM7WsFvgXt9Plr0fsz3cFlZblbvm9/TOl2vmJw7bv1Tw0umaASyj6fNLJ17tPUPTe1RVVXGadJ5hCkiyBipIJt8u2sP4X1bVlVVPvFbUNBGqxRFpCeLZbse%2bAca6f8AjZOq9A1ZlUszyxIt/Q8ibj4euuC7VWNTbI4jJST8wjN%2bxXyn%2b9vtoYZg8guCZ5dDBpdto9votwSSpp3eDx7NOC9mB9Wv2GLdh6aFw9GQz1ksklRKyhmAmLkForlfdyM99IlJ1FXUvU24UkThVqapk4k3K3a2PoNddkT27bDTmWWOolidY5YlPJXseJx2F7XPwvp3lQuAJbWx79ku8yMwHXdiu%2bveEFj2OHcP4UW4u0yBmpbqVRVIGGPrgjzY/bB0LWgoKHqXwad5FYRsUi4PIJm42YhmNri47aKQ19bUx0cm4MsFJRhamtMRYv5MBCPiWzYXwPnoXP11QGteempqieCljLEmPgzMXAxf0t31JJBprs/waG6CIat2IwTfpZuse%2bFbsG1yVs1ctWKuCKGKSlZWIXkzEDH7CxuPU21pfofe5i8238J6Q4jdp1Vjj1HyNxrVse7ybltcNY8bRiSomPBmuVH6QT/TT30yvi7BSyeZeQY%2bv8x1WzSsiH5Q8UxwSl9S3gbbUlH8YSlX0/t%2b3ubGt3GGG/wGb/30t7Pse1bn1rvVNLSI8EG8LwuSB5ENwQDnOmPqxTulVssATksFYtZK5taNE7/10M6Taop%2bqdxn8AexzSy1jzMOLcpCLD5gBTkaSaKbeyYL%2bE1VoVUdFbe01RXCeb2l94BSWy3UZuALdrn7at6Kl3aDfKmOprZJKOnikx4h4nBUCxyRfVFF1IzU8DyRSexybyVSUqACmfNn52%2bh1sWlT8j3xpOURFHInIEgqbub/Ty6Zh1M0QdWQd/6/wBUephikLQ6wRtX039k0JQU1bDW0rh4lql5PwNiTwVsfW/30o0PTlElLVNCrkyQI5WV7qQ72zf5gHV9EYouo%2bny0hVo9ulRORJDExx9/pyOpU%2b4c9s3FoIJJ3SFIY40F%2bVnJxb0GM6VkcZSKHdlOwax%2bmYWBxAOfHwR14IKfpXaWpoUi8SVmYILZva32050VTz2iibsfCFuJx2tnSb4qVnQu3vTIxanYFwguVYHzX/b/Oj3TtXFLtEEayXaNeLi1iM63I2mV4gpYScx/H55SnE0ksfhDkZJrNM3ey/D/OpUsskcFZMY3ZZfIicbjiBYC3wzrNDI6e0cXZbqQbG18jXhNKI4wJHAuwwx%2bWiq8Ib8USoNpDUu0Rh6dVDljG184zi3bOp0HT8C00sLNAYakFXVXYG4a49PodTgkcVNKA7AKmM9sa%2bwyyCVAJHADX9499apEskuzoyQTs9MXpJAUywsAOJHb5C2o/k3sVVNW0k8Cu9mVFvyYYxa3u/5GtDyOROObWIJIv3OozzS%2bywHxHvci/I9tZQCy1TSvJRzGemZhDKefgkEgn9QHwOiItTyCpprqrZIt2%2bmhZmkEE9pHHGQW8xx37a10LsyvyZj2OTrKrK1d4X/2Q==' /%3e%3c/svg%3e"},"path":"/blog/racket-boys/","timeToRead":2,"category":{"id":"Sports drama","title":"Sports drama"},"author":[{"id":"author4","name":"SBS","image":{"type":"image","mimeType":"image/png","src":"/6110110113_Ass3_Gridsome/assets/static/SBS.3db9db9.e290e5bbf04a3210a14ee59185e5b04e.png","size":{"width":24,"height":11},"sizes":"(max-width: 24px) 100vw, 24px","srcset":["/6110110113_Ass3_Gridsome/assets/static/SBS.3db9db9.e290e5bbf04a3210a14ee59185e5b04e.png 24w"],"dataUri":"data:image/svg+xml,%3csvg fill='none' viewBox='0 0 24 11' xmlns='http://www.w3.org/2000/svg' xmlns:xlink='http://www.w3.org/1999/xlink'%3e%3cdefs%3e%3cfilter id='__svg-blur-f3ae7a0589e1c36d2ca1ab7a1ebb8ec4'%3e%3cfeGaussianBlur in='SourceGraphic' stdDeviation='40'/%3e%3c/filter%3e%3c/defs%3e%3cimage x='0' y='0' filter='url(%23__svg-blur-f3ae7a0589e1c36d2ca1ab7a1ebb8ec4)' width='24' height='11' xlink:href='data:image/png%3bbase64%2ciVBORw0KGgoAAAANSUhEUgAAAD4AAAAdCAIAAAB9m0iLAAAACXBIWXMAAAsSAAALEgHS3X78AAANNklEQVRYw61YeXRU1Rm/kwmBqrVq1VZabfXUals97oqeckBF1gCyBBVpPZS6oVI5LS0CAZKZJCQkIRuWsAlkMXsI4FIiJexMMgkBkhAIYAwJk8yWN/Pem7e/6e%2b%2bF4YYUP/pO3OS7913v3u/5fct95JQKOT1esPhMMuyfr8fRH9/P2gQGMdXXdfdHo8ky/i53W68YtDn830Pi6ZpHo9HMR6w4FUQhMgumGyyBIPBwbuARZZlsIAYwhLZxWTBKz4R3nhCxmMSV14FluNZk%2bZ5RRRUSRBCPMeHMH4tCx5sNmT8WiKy3Q/ONAlzzevyUtGhIpSQJElRVBDQmwsJQYbaRhUFkWVUPXzB5T/T7RXVsMwFdEWkrvD6QoKoqgMsoiiCwDgWNI0UMB7TWhzHmbtgWoQFOw5hCRpPhAWf4F6wYDJmgtFkAYE5ZDBgTFcGAkxYCXlDypaGnnd2XxhXcObBj0/dta759owTv8k7%2bXLpufTDl9ovU8AIPOfz/4D3/y%2bAGcIyABiwQRV8FugjciwryWLSga47MpvJqnrLynqyup4kNJDEBmJzgqAj8fU3pzUt2H3xtAtGlbkBXgGLYCksaBKc8ZgE7BrZBVYEgb/XspiQMFkGCzaYBdKDwCcqOhRlGCYkCHgX2MCCXRfIynprknN4SmNMSuPwlIbhyY6YJPoDMQKvKY3RSU4odnPaiZX7u8CrKTLAE2AYLIUFsTp8yhoPCLxCIHwCfrA3TAsW7AUJMDKYxdT2WhZMBgsYwWISmHMVMEyQZQPMws87SbxjWHKjJakxyl4fk3SM2E4Q2%2blBvyYMDks6Hp3caLU7yYrj44vOdvb6eG5ohgmJEhcSe1y9gqQEWN7V55ZVnQkE4XdF1fu8Pl8/gxGMM0EOc3pcfdIVwCiqxlxh8TOBPo8PBKJrKGAwm0JWl1fXXSLLjlmTGondabHXW2ynLLaTj6QXzcu1rchfmL75z%2b%2bu/9fD6cVUgcQ2OsHuhAJk2fHY4nZZEhjD6rCWaUtdFcOqFA4jqkOaYhK8SoMTEOHCuqZriiryEEVTJU0WQPAwAMtSP/BsWFP0sC4JnKYqmKyIlGWo1fmQEJZCn5/1AspAAgSCvYnt1Mg1e3fveE6pjAqXEb2U/sIVRKgctmfHs89mbCWJrVH2BigJUMFRm52usCJgKRO4YV3d6zz/atruyfaa0ctKn11aOnZl5e/e27619pQqS6%2bl7pqUUDXNvnPsRyXj4isnrqqclVKTVuV0eRlJCEGyXm9/fMGhWHvN2BXlf1xWNnp5xWOLi2am7A7QxMyZ6Kei%2b30%2bWGDUllYT4hYq98lbkw8dLfoDhOZKh7G1T3PH5nFH4oKf3csXUQWkyqj31y%2bB7aEkNXy848MvO2E2t8eLxA9iz/H26GlZZHw6GZd2x9wNT//j0yc%2bLHpg4fZ/73HCbCNf30BeSCUTM%2b57e9tDiwpunJVLXkwlY1NGf1Ru5uVJq6vJ2DWWCenRUzIf%2bqDgycVFjy4uGr%2bi3NcfMAGDpEmCHHVZ9anLCLsoKjc1JLE11%2bwYA7mDe5/RfMd0OBsP/qqSfHEzW3VrCB6oIjOzUyE9sTluTG1q7unnA/2qpgVZThW5uWs/Iy%2btjZqVe/uf8s93uYAcmr%2bD/YABwwn3LNhCpmdbZ%2bXWNZ/H7p0u3wPvbiMzcqBAzdFzbV1eMjF9%2bJz10C2h8CAtL6oaYgFp/Vt5nYWRFOGdmvOwXHSy02p3kIT2V3NTqdy1z%2bkKDQvdwKWuqSDwqngOMOU3hCvJ6o1vkoSzMcn1cNdbuy6ENQmhzlFbqLNs1WRCunVWXvSs3M8bIJ/eHwiiQiO/9XmZe/66hUxdZ5mRU3/uMqCONeekfUYmZYBl%2b76WhvZLEH1Y3HqMzEnbo6kyoAFnmkUUUDGzLQVMMMA8mn%2barG6A1SnKE1tqto2GZJKvybS0PvhB8IXDodOrwiUkedN8WN2aROMVTtt3kVEQoix1Y/mhNjI5M2pmDpmWdcPM3E/rWmEgSVbQSvT0en715lYSu84yM%2beTfa2O1s7cXc6b526AoLfE5bV3uRGro/5eTMavpdJPSJ%2baUIlcREsSwyCKkL4AOaQpgrBA4fxZxgkUnagk1J2mG5KPdhTepO1/EtbQNU0f8sD2MDzTIlYQtjzm/rRqBPSw5AaywjG/6iwtxizn9dJam7O7EdJYZ%2bZEvZwdNS1r495TqoC6IwY48Zd/2UymZkXNzIUCVIeJGXi9a/7m2sYO2cg5Z7t6H35vOwBDYTM%2bfeyycihMTYYSa9RaChhNElq6vT9Zi%2bTtNEQ/cXvqge4CojW8TkVX5WtE1yC6Jnr5Pb9Qy8iLWfkwPMVMvGNacbtGezaaIvxGg1BYdyZqSgZEB2yAgbTKemjd0%2bc1AQOf/Hbh9kcW7Rg5fxOZknnTax%2bvLj4qiZK/n8EuPR7mqQ8LIPeIV6jtn1hc1NPnUyS4TkZ2R/4lsihc7PXfGbG6vQlytG//Ufj4dMPqynWtroUu8zU/VcvJqMztyJIxhtVnl58LS7TZRDBhdSPV6CUH24YbsKHST8oormvhOc6wOsX64dZLuiJ5%2b4NxqXugG3kxLb2qHk1fkAspsuTxB8YsKwNyYuZQ6ccsLUEml43F8QDrvKLp9%2bedvIp1W2v11qfDX96pyCzSCo3Rb4kuQ3TZ9aVUSnrLbvv5mv8gHVHAxF8FDJIXXAOAutwUORWHz8TMzjPhMWpJST8bunvBgOhfONpputDkqsOtiA3ycvbDiwpkVfP5/N7%2bgKKqwMnzy8vxaQSkj11XcahNDgVRcilgqH%2b5wIyyc2ZSpxkmsT0uNy1cStj2bBqmCo8qZmQYFEiBiq6rwf%2b%2bgBS0NP8DTAaLNdkJ0W0HusNCECmLNjDBgKbhv8pzwQAbuu/tTyArJLtt3oaGM9/cj1Q4hYZpfUdvWBElUXg/fz/NMDNy7nxjY8c3LkiGs43ZM9tKjsLwRq5MX1l4hLYb/n4apjSva2L6oS543IrWZSCvn6z8ZHS4mgjdO2lE6BTfcICZKPmmv0Gx/YWPx2CmfYDFmlh/rNOHwo0FVVmMLzg4PqF6xprdU%2b3Vjy8uAmCQ4xGLd7%2bxqeOS%2b963BjLM2PiKGSk1zywpsUwzonZy5mOLCutOdcYm1UxL3jXFVh1r3/XjVz9GERgWl0deSltHo4WWDpoc8QfytHV7b01tQqRa7EZVsjXdnHSkEimyAvH6itS7TwpekJj2UGcxWzsKcveV3/JA2k7klivVtH5%2bdQcyI9om5FyRZyevrCRjUqxTMikMpmZZZ%2bdZIdmYlCVbD6AnoVifnh09O49MzqDGjl0XHZcXhZI0NiX/i%2ba6lm4QUfgE3kkZiGbUB5j8rnn5Fy970SMqJmCQ1/s8tHNcWvsNWX4cDe2V3utElO30vNzVDdvuUFA7qy16JQmXWLRSUl/84BPpRUYP40B4kETnr9c1XfKzZiPAG43AS8tK0QJYp2cjdZDYTPy1zshemL8fJ8Rulxu2J%2bNSqXCxWXTCFKreiLjcFYVHaV76qhlpMQoAM8YtdFrm7z8orHWeQz4EAK6eTdG482zQzwuP5bfCftED0jfQQpNwdniSc0JWzrqNcQVbJqRsmh%2bbnTUiiZYt2urQaU6cRfac86OUol4OHBc47khb946vTn66//TO4%2bcL950sqWs93elWZUGWRARDxYGW8kPtFYfbd9Q2Vx/rKD3QWlbXctHVj0CSxNAlTwDjGMSngq%2baSw%2b27W382u1DI6DBLlePGmZHD9yjLz3v5%2b/LbibLab9OzWlHI%2bmw2BuhAEnsIAnnSAL%2bnsUI7D3QMy53/HPv18Af2qbBTa8RFjL0CdOmVkKBQHLCLugFFEXWFdri0hZAo7UZX42ZeiAQRCtB2yVNRn4wpmCCighD3Aui9F1HjSAfZFys/PyOM0gXlkQn7caoAk5rkiP6ys9qCI1xCvHljjHb2iRVp6fGb99/9LnddCdJdvX2yYqKPOYZdNCEbF6fn2GC8H6f24OoQ5C43R7lynEWLHAOPmECTieYfP3LDGiAUZG6AXmSUVUlx%2bEamXkC6dKC46kh5eAfbehX1ZOPjk0r62BCUpBhROO0hkVoNuR5euRDC2k8Zsth7oItzQMeZpqnNZMF2mKOea4bwoIJJgt4IyxQb8DqZi9m9u8wHvoEuM8d4PKOX3pqS2s00LzcgQimvxUO/Cy2hqc2txQ094VEil2kKvNYjUWwAu3yDMI8I5tEZBd6v2PM/H4Wc%2bZ3sVw9akSussw7A2gM8ACsKh9ARDe52IR9F%2bdWdcyu6Hh3V0e%2bs7ehy08vPIzjrH/gmoExb7%2bwFNY1r1yG3EyYu2DjyC4RFhNj5uWMeeXy/Sx4pUcNaGmyIWbhBexk3tQAmqKi4cDLG1JqIqcKtKeTkbzFED653B7obkoZudwxzpfXuUKK7BK5QoqwmDeB114h8bTghK/LMtA5ms6K3I8NJjh%2b4KoMbQmCho0QHB9hMQmz9zeJiH8HO3oIJL5r5nVZIhIO3gXE/wBUKFToc0xNxAAAAABJRU5ErkJggg==' /%3e%3c/svg%3e"},"path":"/author/sbs/"}]}},{"node":{"title":"Reply 1988","excerpt":"Five childhood friends who live in the same neighborhood of Ssangmundong rely on each other as they enter the peak of their turbulent teen years.","image":{"type":"image","mimeType":"image/jpeg","src":"/6110110113_Ass3_Gridsome/assets/static/reply1988.4250cd3.02ba31266add4812795eb103bd85dfae.jpg","size":{"width":800,"height":450},"sizes":"(max-width: 800px) 100vw, 800px","srcset":["/6110110113_Ass3_Gridsome/assets/static/reply1988.1b91758.02ba31266add4812795eb103bd85dfae.jpg 480w","/6110110113_Ass3_Gridsome/assets/static/reply1988.4250cd3.02ba31266add4812795eb103bd85dfae.jpg 800w"],"dataUri":"data:image/svg+xml,%3csvg fill='none' viewBox='0 0 800 450' xmlns='http://www.w3.org/2000/svg' xmlns:xlink='http://www.w3.org/1999/xlink'%3e%3cdefs%3e%3cfilter id='__svg-blur-959dc249c99dc46d79620e2a9126d6d2'%3e%3cfeGaussianBlur in='SourceGraphic' stdDeviation='40'/%3e%3c/filter%3e%3c/defs%3e%3cimage x='0' y='0' filter='url(%23__svg-blur-959dc249c99dc46d79620e2a9126d6d2)' width='800' height='450' xlink:href='data:image/jpeg%3bbase64%2c/9j/2wBDAAYEBQYFBAYGBQYHBwYIChAKCgkJChQODwwQFxQYGBcUFhYaHSUfGhsjHBYWICwgIyYnKSopGR8tMC0oMCUoKSj/2wBDAQcHBwoIChMKChMoGhYaKCgoKCgoKCgoKCgoKCgoKCgoKCgoKCgoKCgoKCgoKCgoKCgoKCgoKCgoKCgoKCgoKCj/wAARCAAkAEADASIAAhEBAxEB/8QAGgAAAgMBAQAAAAAAAAAAAAAABQYAAwQHAv/EAC8QAAICAQMDAwIFBAMAAAAAAAECAwQRAAUhBhIxE0FRByIjYXGBkRQVMjMW0fH/xAAZAQACAwEAAAAAAAAAAAAAAAADBAACBQH/xAAnEQACAgEDAwIHAAAAAAAAAAABAgARAwQSQSExUQVxEyIjgbHR4f/aAAwDAQACEQMRAD8AH9OdPwbJdW7YtPLIwSOAQ15EXvLYPeWXxg/lzo70ml5KtW/LNL/QySuqM0nYJpBkAFhzgc%2bfOMZ1t3qtDDHA%2bcOZ40PcST/mDnn9NUJsd/qfo/p3b9nIMcE1gWMy9iqCRhiR7/cQMc86yAoymzNVrxkRo6k37e6G0zTTxyMjCIxSekcYA/EJ/f50sf3zrCCvG9bb6XpWAZEYyBe1VUf7MjALBQRj9DpumTbeivp3Zi34zVaFhmX0BKZXRnH%2btD%2b2fPGTpV6T3nZb/TV3p7pJ5n3MOtohu6QmLK%2boUL%2bSoz9vyeM6jpa9r95VAN3Ujx/ZQu/brYX1L95K9J0d4pWRCMqQoDgDj7iMcnIB0P26IUtysJuV5WdZVlmsFPTCdwGMgE4J5xrxvm13XTbOnbUNmt6c3qTPBGrkFu54wfb1Cozj/wA1RRpTUq3Ve3b/ADFWuCragvMpdSqynu7iB9rYbn286Y0wXFYXxxKanGCRz2hC3Qhk3LcBRlSUwydz5b1CndyE7%2be7GD7n49tao4ZRQEw7SO0NgeeeNZ9uqUq/QV6qNxhaXcbHqJNCD3Rwr3ImT8k5OBz/ADpXStbp7jaFOxMYHjDD1CAVXIGTk%2b/xoWTGCaBhFycmPfUlavHtbSrKWmSVHLs3cSe8cH2GvP0sn/45cvULsgkEldrSAEnKpIwcDjg4ZT%2bx1zjoNL9/qSzStiWaJ4mn7C/cP8wAW/Px/Gj31V3a/tUsFOrlWmrhZGjX7sd5OO728eNcxJeQJIPqgA8moc%2bsdjdOqNonTbpILdON4nrUoAHldu0h3Z/y7m444GdIv0ri3Tp7fjvsm2rANursJEeyqNYVj2s4ySOBxgcZ/PS%2bd5sV6UbRWJkKt3hQxwp92x7HTiK4k26xYhk2yvUkpRxzSPJjDZ9QnHJBB042Mou0nv8AiF1OlXCw2mxU6Jt3Uybjuy73HDBCDOsjySMoaJgCvbLyMMFyAceGGNIHVbXpKKf0O4G%2bZgbNiBYzle1mw6fKDPg/kdAN23qBeoKsteGCSpJPHLZYFiJhlCyup4wMEj5B10X6tblt1Hp2jFQirPYnmijgnjQArAArt248K3A448jVkVlcMPPb9xXLlBUIVFgdxEDbppLHT9xZq1iCWOVZ6/4LAMO3D4bx7ZI1v2barV7bhcoAvG6lZIwDwQ3nPuPt1X08Lktrf3t3ezbqjGNVZcKjHlQe0ZIAI40J23cd221ymybsqxjujIEZCNhiQQp5GcjzoWQbnJHPWVVqXrOr9EbPTpUK9uvGVszwIry5%2b4r5xn4zob11Uig3QRAGSK4uJUkORkcZHwf%2btTU0gpJykmD9QAGnscVFi76dKyBVrwRd5SMlYx44H8/J9zpUtwx1597k7Fklo2oUheQBjgvzn5/fU1NaGmY2esUwsX3Mxs3GLqDpylH0/SkQzCQxNI7dw/EYgHLcaF9UuLfTWyXZUX1gHhAX7UVVwAAo4Huf1Opqa7jYll9zH6G1vYR66KgWt0zWjUmRZAzv6gDdxJxyMY4wMfGNZ%2bp9mpQ0GswxCORAAe3ADAnGCPfU1NIsT8T7w6j5J//Z' /%3e%3c/svg%3e"},"path":"/blog/reply-1988/","timeToRead":6,"category":{"id":"Family, Comedy, Romance","title":"Family, Comedy, Romance"},"author":[{"id":"author3","name":"tvN","image":{"type":"image","mimeType":"image/png","src":"/6110110113_Ass3_Gridsome/assets/static/tvN.3db9db9.a17ffb472c94c02b32e3572bc4a2e76f.png","size":{"width":24,"height":11},"sizes":"(max-width: 24px) 100vw, 24px","srcset":["/6110110113_Ass3_Gridsome/assets/static/tvN.3db9db9.a17ffb472c94c02b32e3572bc4a2e76f.png 24w"],"dataUri":"data:image/svg+xml,%3csvg fill='none' viewBox='0 0 24 11' xmlns='http://www.w3.org/2000/svg' xmlns:xlink='http://www.w3.org/1999/xlink'%3e%3cdefs%3e%3cfilter id='__svg-blur-64d282e3ef173220c2d127cb09ad3807'%3e%3cfeGaussianBlur in='SourceGraphic' stdDeviation='40'/%3e%3c/filter%3e%3c/defs%3e%3cimage x='0' y='0' filter='url(%23__svg-blur-64d282e3ef173220c2d127cb09ad3807)' width='24' height='11' xlink:href='data:image/png%3bbase64%2ciVBORw0KGgoAAAANSUhEUgAAAEAAAAAcCAIAAABeRy4FAAAACXBIWXMAAAsSAAALEgHS3X78AAAK3klEQVRYw4WYa4xV1RXHzzxgwAoD6CAFBURjFS0%2bafxQaapGwGg0JmDSGkWUViygFIP2gxoTH/2ibaRGjSREosYQKmqIxmgbDMRIkGDQSiKMTBh07mPu4zz33uece6e/vfd9nDtQOjk5d825a//PXmv912NfZ2xsTAgxOjqKEIZhqVRC8H2/XC4juK5bqVQQuHueh4BCEAQILEG/Xq8Xi0UpZa1WKxQKSZKkaYrAPY5jvkIhi2%2bFNn61WrX45bLnugg8b%2bFHUaTxCwUpRC1NEWKlkji2%2bEop8B3Q0QP6zEJo/vg/DAIe2idnFv4/rFKhUpFSIo4bgpSnoDU0tY6UURyjpgWDwlcORvBhXWstxnSMw6N8hRdxKk%2b0xVE0GgT1sTHZ9Cj6rYjZQBElfIrA3UaM59ajFt%2b6VkcM1/74o%2bQV5XJhcDCpVJCLP/1UM/gWtoFfr3sjI%2bWhIV7jnjxZOXGizltKJc/30XEshdBj61hiI5ulkGsiywLU4717yzt26O3UalmDQcBgBGswO%2bGOF3jC8yx%2bw2CYiVMfXCNnnCMXXCTnzpMXLpDnDoiVKythGHgeyhrf97HH/de/xew5ct58fc2/UP58TnTddWmlotJ0FAplw316gQ/fx3Xh%2b%2b%2bLadOizz7TMk8yOpZgp31yGgESEn/XlQsWxI4Td3fre1cXdzlhYnDoEF5p4Hse3Iheekkr9Pbqe0%2bPVluyhOSzZHYw1OYiLud/qMITQmwFJQR5U45j8Y9X4u4eMWtWWq2KJCmXSrjWRgyBiMEZQKBNI2LVKg95YinUwke5RNKPjSXffisn9oEZ906Ie3r1NXGSYovPPSdI5UIBTSJQqdXkvffqraOMTl8fOvKJv/AOWAtsm0K2SrQopDldq8FoNqTWb5BAOI5atpxdBM1y1KKQrUKWQlgOhWwV4sm4KqRflKaQsPrqq8aj%2bLWrcXX3JI4TXnppZNKpRBUSok7WXrYw0YHqsTqsqm7fnsBnA%2bvgM/YBX30E3ydTISglQPp%2bkKYh/rvtNv2mvkncww0bcF6Ed7GKZUFgBSKOmwFhi1bgjqwFaNCERV8LlQo%2bFhseMcSY0DaAq6sbBweffEK%2bAUG8/O/%2bIydNNhzr1hdOnDRZHjkSJImGVcrB5bwpTRIiDbmxDE6QkjHC4cPiyqsSu/ueXqC9Xe/xHAoR2RSPwhAjBFJS0QmCpRBe504Ya0lSxd/1OjpoRkYoex746oYl4yPApf91gtWrIUdqapb79ttxp/vlLy6lPrieh8d5o6EQ/cX3IWW4br23YYPavDl49FEfD82bb97RcJJyuuT993t/3hQ%2b8mj8%2bOPe%2bvXhxo3qiSfcBx6Q77zDzgq5nK1C%2bXxel10pixTH116L/rTOwoaPPeY%2b8GB64EBUKET9/Yn1a2cEtI9nz6GE60aJQ598UrUCZcwLV64sSqHbmFJ0NIdsCz0Px4fPPsfXiUn2xFy6MmRfYNATkwxtobsbQVxySVCpJLVa4Os/dk/yBGN1%2bcUXsqtLo2koLcj%2b/uqxY8HeverU3TczQbNo2zYdaurETTcnrUAZFoQvvMBuPVMbcJYxwPfRju64o1WnGsG1gWtfTvui9k2YqB3DNVFXBn/3bnADwxxwYRIpFN96ayN/UDNZFL34IhUgeP758fxpGWPdvHSpYkv5PB0gbplqMiT69FN2S9VrGNCYhYpFcddd8rKF4sqr1TXXyKuvVmf9zOy17Xt5wVy1eLH45SJ57bVq7tw2rnml%2bMMfdd8WQs9CIyMwKtn5T5mhL46MLr%2b8WijoXn7PPacY0Mmivknl777zDxxQnXtQAzPF8PBotUrS2lkrk8TFIo0jEYK5KiwW1Nx57ewxi8OPPqoIkZCCFMFdu9ocMLkl5s2LqU5RZLMZLomrrmojmOjLt94iSm6pJC5b2P6K7OruVlOntv1llV9/Xe7cqVp22iK7eLFPyU7TRpEgiakbGCApo6ZBMofQfqL9%2b1VXd7Z4yenTwxMnqFsoRFJSAcTChdn6oF/53i7SLqD9cf/b3%2bMMd7WFv72R8sVX3jeH5eSOyigHzgs3b447PSJvuUWsWdMG0XnsRA8/TA9RpljbMu2MH6fzeQS5dWs7963p116H6Y1x2oxrwaZN2S2i461YATtJ5dEfBsXs2dkiA5fSfftCujvz8IcfZv2q97pokTs4KAYG2jZoFvWR8Vmisip5801iWISizXHdaY31trPW4rhcrwWrVsWduR%2bvW8/2R/N5PZxhJ1z66is1jrgDA9Xvv6fJK%2bvOjPvVqvtpL7TYesvyZmXETv/OO7E8Xr1anTkxenqrX37pKsWI0Jp2O4c5c9FIo%2buvH2dA9Nrreoajmza1IdKpLA/efTfI5eTks1oM0aVz8uTw669pq3o5tWXZsvHEMPNPZPMqW/papcmm2QUXBIWCPgyEYWs07Byng4DjUDoyIvunZTnKyyr79lHeMb1xYmKeo5Y9/XQyztN3363Wrh1HrWDTYyjXzYmkNDws55yfrYywK9mzh%2b5d5RyysCO5x3XocOkyTVEpYU1rXO%2bkkJ2/LUebL9Aemj0nrbqSk02x2JjvOSuSKgcPSuObDHEnKcbG5lpdOmfNioaOo1yi%2b46NpYcOSTM5tzO4f1rpyBEyR%2bf3xo2nmS9MoPSWnnnGMyeT7IGpcaTEqfoU53nkePTss3Fn95a33x6aMwA6Nv21wMiepvLGm87QknRp2rIlMg2OlXq4f%2bUV1Rk0%2besb6B28OsQ1Bw8q%2buOpTdq25127NAPN4NjatqPH7ojsqqQaxWf2khSTDEf1Jp56yjPzd81kD8sQdN8gX7dsUaf1mWXtoisT0KWktzC9YIC/alXSmQBi7dqaaQ6UZtqfWPKb03nEUVOmVDhC1McYsaAxJUgawWEeavwKwIb0/K3kxRePK/DVHTsoXkzCrV8ZEDiqEoHSN9%2boKVP/l8%2bSDz7AaFt2wadux4t/pTJ5r/m5fTstHPNi8JNEvPHGqecE6wt9xOU03PkriUMqsCG6Gh%2bMu/6hQ2rChA6Onn22OnrUzt/YjabtIAiEUB8Pli8f/0qTu%2bHNN3txrEys9bEB7x4fElP7O8C7uoP9%2b0nNxrGBNDh6tK3TTABtwH33cUiAh9LsVpo/bHBsUkKMlPKEidu2Jc1zamInzSuuSMygb8dMPfyFoeUSdNQD3NatWtlMgY3Bk4hjwOefVykWVFvwSyXoIT/%2bWBlYOw6mgJ9/fsDBn32b0YDmhFejFSuS5ljZEqKXX66aHozvcL%2blEILD7G4pVMzlMIBMD50uMfM8ce5AdM65%2bpT90EMF0Z6/LYUQ9M8eQVBy3TQ3Ei24KJoyVTJpTZ/BKg5N3n2r/OaPFxo/Tal87gt/pUahIECeeV7U0yt/93u8ns/lbGfNj4xgTLx7dzixDwUx45xo2nRgAXf37NEUqlTs7zew3x6%2bHVYSYtzJdEdjKA8Px/m8OzxcOn48HR2tDg0xP6aZCLCMDdlQsJBVFdcNOafnckXGAXpILlc4dkySuk1XaXyKBMmQz48ODibFonviRHloiIOPVyj4Bg18Cws%2bEWZIGP3hB//kSXwGbDgyEoNWreJ1GwHujQjYF7BeC2EIwWOyE4qzOUqnlIHZpW%2bKlx70zfBnBRayiugLuI6RDIUcxFItKDP2kXM2xxr4TIGgGXwKoaa%2bKYWg2dTSAvjAko1RBGzMsRhf0LbMiyz19e8MxgCE/wKgKQwVQMSYuwAAAABJRU5ErkJggg==' /%3e%3c/svg%3e"},"path":"/author/tv-n/"}]}}]}}},"context":{}}